…
``` r
library(tidyverse)
library(rafalib)

mypar(1,1)
list(Wdf)
```

    ## [[1]]
    ## # A tibble: 90 × 42
    ##    Q95      Q96     Q97   Q98   Q114    Q130    Q130_…¹ Q135_1  Q135_2   Q135_3 
    ##    <dbl+lb> <dbl+l> <dbl> <dbl> <dbl+l> <dbl+l> <chr>   <dbl+l> <dbl+lb> <dbl+l>
    ##  1 6 [60° … 6 [60°… NA    NA    5 [5]   5 [The… ""      2 [A L…  2 [A L… 1 [Ver…
    ##  2 9 [100°… 4 [40°… NA    NA    4 [4]   6 [The… ""      4 [Qui… NA       3 [Mod…
    ##  3 9 [100°… 6 [60°… NA    NA    3 [3]   5 [The… ""      2 [A L…  2 [A L… 2 [A L…
    ##  4 6 [60° … 5 [50°… NA    NA    4 [4]   6 [The… ""      3 [Mod…  2 [A L… 1 [Ver…
    ##  5 8 [85° … 7 [70°… NA    NA    4 [4]   7 [Som… ""      1 [Ver…  1 [Ver… 1 [Ver…
    ##  6 9 [100°… 3 [30°… NA    NA    5 [5]   6 [The… ""      2 [A L…  2 [A L… 3 [Mod…
    ##  7 8 [85° … 7 [70°… NA    NA    3 [3]   6 [The… ""      1 [Ver…  1 [Ver… 1 [Ver…
    ##  8 8 [85° … 6 [60°… NA    NA    4 [4]   5 [The… ""      2 [A L…  4 [Qui… 1 [Ver…
    ##  9 6 [60° … 6 [60°… NA    NA    3 [3]   4 [The… ""      3 [Mod…  2 [A L… 1 [Ver…
    ## 10 6 [60° … 6 [60°… NA    NA    6 [6 =… 5 [The… ""      1 [Ver…  1 [Ver… 1 [Ver…
    ## # … with 80 more rows, 32 more variables: Q135_4 <dbl+lbl>, Q135_5 <dbl+lbl>,
    ## #   Q135_6 <dbl+lbl>, Q135_7 <dbl+lbl>, Q135_8 <dbl+lbl>, Q135_9 <dbl+lbl>,
    ## #   Q135_10 <dbl+lbl>, Q127 <dbl+lbl>, Q128 <dbl+lbl>, condition <dbl+lbl>,
    ## #   Distressed <dbl>, Upset <dbl>, Guilty <dbl>, Scared <dbl>, Hostile <dbl>,
    ## #   Irritable <dbl>, Ashamed <dbl>, Nervous <dbl>, Jittery <dbl>, Afriad <dbl>,
    ## #   NegEmo <dbl>, Expectation <dbl>, White_Warmth <dbl>, Asian_Warmth <dbl>,
    ## #   Centrality <dbl>, Centrality_meancentered <dbl>, …
…
